<?xml version="1.0" encoding="utf-8"?>
<!-- Generator: Adobe Illustrator 15.0.0, SVG Export Plug-In . SVG Version: 6.00 Build 0)  -->
<!DOCTYPE svg PUBLIC "-//W3C//DTD SVG 1.1//EN" "http://www.w3.org/Graphics/SVG/1.1/DTD/svg11.dtd">
<svg version="1.1" id="Layer_1" xmlns="http://www.w3.org/2000/svg" xmlns:xlink="http://www.w3.org/1999/xlink" x="0px" y="0px"
	 width="121.681px" height="178.308px" viewBox="0 0 121.681 178.308" enable-background="new 0 0 121.681 178.308"
	 xml:space="preserve">
<polygon points="32.527,0 0,32.528 56.627,89.154 0,145.781 32.527,178.308 121.681,89.154 "/>
</svg>
